{
    "name": "AC",
    "fullName": "Agile Coach",
    "description":"Agile Coach (AC). Agile Coaches are subject matter experts in Agile and organizational improvement. They have demonstrated their ability to invent and further the craft and are now expected to coach, train, mentor, guide, architect and otherwise oversee teams of practitioners. Senior Product Owners and Scrum Masters progress to this role after they have successfully led a major improvement project for the organization and achieved experience in both roles.",
    "roadmap_nodes": [
        {
            "id": "AC",
            "group": "Agile",
            "upgrades": []
        }
    ],
    "paths": [],
    "TTL": []
}