{
	"name": "MTTL Dev",
	"dockerComposeFile": ["../docker-compose.yml", "docker-compose.extend.yml"],

	"service": "mttl-dev",
	"workspaceFolder": "/workspace/mttl-dev",
	"shutdownAction": "stopCompose",

	"extensions": [
		"dbaeumer.vscode-eslint",
		"gruntfuggly.todo-tree",
		"ms-python.python",
		"ms-python.vscode-pylance",
		"streetsidesoftware.code-spell-checker",
		"ms-vsliveshare.vsliveshare",
		"CoenraadS.bracket-pair-colorizer-2", 
		"sibiraj-s.vscode-scss-formatter"
	],

	"remoteUser": "node"
}
