[
    {
        "filter_type":"mttl",
        "filter_text":"mttl"
    },
    {
        "filter_type":"wr_spec",
        "filter_text":"90COS"
    },
    {
        "filter_type":"wr_spec",
        "filter_text":"CCD"
    },
    {
        "filter_type":"wr_spec",
        "filter_text":"SCCD-L"
    },
    {
        "filter_type":"wr_spec",
        "filter_text":"SCCD-W"
    },
    {
        "filter_type":"wr_spec",
        "filter_text":"MCCD"
    },
    {
        "filter_type":"wr_spec",
        "filter_text":"PO"
    },
    {
        "filter_type":"wr_spec",
        "filter_text":"SM"
    },
    {
        "filter_type":"wr_spec",
        "filter_text":"SPO"
    },
    {
        "filter_type":"wr_spec",
        "filter_text":"TAE"
    },
    {
        "filter_type":"wr_spec",
        "filter_text":"JSRE"
    },
    {
        "filter_type":"wr_spec",
        "filter_text":"SEE"
    },
    {
        "filter_type":"wr_spec",
        "filter_text":"VR"
    },
    {
        "filter_type":"requirement_src",
        "filter_text":"JCT&CS"
    }
]