{
  "Python Algorithms": {
    "uniq_id": "BD_PY_ALGO",
    "uniq_name": "python_algorithms",
    "description": "Understand and implement common algorithm types using Python;\nIdentify how big O notation describes algorithm efficiency;\nIdentify the uses and efficiency of common sorting algorithms",
    "objective": "Implement search and sort algorithms in Python;\nRecognize the implications of big O notation;\nImplement common sorting algorithms in Python",
    "content": [
      {
        "description": "Algorithm Analysis",
        "ref": "https://39iosdev.gitlab.io/ccd-iqt/idf/python/Algorithms/Algorithm_Analysis.html"
      },
      {
        "description": "Algorithms Design",
        "ref": "https://39iosdev.gitlab.io/ccd-iqt/idf/python/Algorithms/Algorithm_Design.html"
      },
      {
        "description": "Big O Notation",
        "ref": "https://39iosdev.gitlab.io/ccd-iqt/idf/python/Algorithms/Big_O_notation.html"
      },
      {
        "description": "Big O Analysis",
        "ref": "https://39iosdev.gitlab.io/ccd-iqt/idf/python/Algorithms/Big_O_Analysis_Demos.html"
      },
      {
        "description": "Searching Algorithms",
        "ref": "https://39iosdev.gitlab.io/ccd-iqt/idf/python/Algorithms/Searching_Algorithms.html"
      },
      {
        "description": "Sorting Algorithms",
        "ref": "https://39iosdev.gitlab.io/ccd-iqt/idf/python/Algorithms/Sort.html"
      }
    ],
    "performance": [
      {
        "description": "Implement search and sort algorithms in Python",
        "perf": "https://39iosdev.gitlab.io/ccd-iqt/idf/python/Algorithms/Big_0_Analysis_Perf_Labs.html"
      },
      {
        "description": "Recognize the implications of big O notation",
        "perf": "https://towardsdatascience.com/understanding-time-complexity-with-python-examples-2bda6e8158a7"
      },
      {
        "description": "Implement common sorting algorithms in Python",
        "perf": "https://medium.com/@george.seif94/a-tour-of-the-top-5-sorting-algorithms-with-python-code-43ea9aa02889"
      }
    ],
    "required_tasks": [],
    "required_abilities": [
      {
        "ksat_id": "A0093",
        "completes": true,
        "description": "Analyze data structures and implement most efficient Big-O sorting routine."
      }
    ],
    "required_skills": [],
    "required_knowledge": [
      {
        "ksat_id": "K0045",
        "completes": false,
        "description": "Describe the concepts associated with traversal techniques."
      },
      {
        "ksat_id": "K0046",
        "completes": false,
        "description": "Describe the behavior of depth first traversal."
      },
      {
        "ksat_id": "K0047",
        "completes": false,
        "description": "Describe the behavior of breadth first traversal."
      },
      {
        "ksat_id": "K0049",
        "completes": false,
        "description": "Describe how to determine the most efficient path for traversing a graph"
      },
      {
        "ksat_id": "K0132",
        "completes": false,
        "description": "Understand the varying degrees of Asymptotic notation (Big-O) pertaining to algorithms."
      },
      {
        "ksat_id": "K0136",
        "completes": true,
        "description": "Know the runtime efficiency for a Heap Sort"
      },
      {
        "ksat_id": "K0137",
        "completes": true,
        "description": "Know the runtime efficiency for a Quick Sort"
      },
      {
        "ksat_id": "K0135",
        "completes": true,
        "description": "Know the runtime efficiency for a Merge Sort"
      },
      {
        "ksat_id": "K0133",
        "completes": true,
        "description": "Know the runtime efficiency for an Insertion Sort"
      },
      {
        "ksat_id": "K0134",
        "completes": true,
        "description": "Know the runtime efficiency for a Selection Sort"
      }
    ],
    "resources": [
      {
        "title": "Searches in Python",
        "type": "reference",
        "description": "Reference from IDF",
        "url": "https://github.com/TheAlgorithms/Python/tree/master/searches"
      },
      {
        "title": "Python Big O Notation",
        "type": "reference",
        "description": "Reference from IDF",
        "url": "https://www.tutorialspoint.com/python_data_structure/python_big_o_notation.htm"
      },
      {
        "title": "Data Structures in Python",
        "type": "reference",
        "description": "Reference from IDF",
        "url": "https://github.com/TheAlgorithms/Python/tree/master/data_structures"
      },
      {
        "title": "Sorting Algorithms in Python",
        "type": "reference",
        "description": "Reference from IDF",
        "url": "https://stackabuse.com/sorting-algorithms-in-python/"
      },
      {
        "title": "Sorts in Python",
        "type": "reference",
        "description": "Reference from IDF",
        "url": "https://github.com/TheAlgorithms/Python/tree/master/sorts"
      },
      {
        "title": "Python Sorting Algorithms",
        "type": "reference",
        "description": "Reference from IDF",
        "url": "https://www.tutorialspoint.com/python_data_structure/python_sorting_algorithms.htm"
      },
      {
        "title": "Sorting Algorithms in Python",
        "type": "reference",
        "description": "Reference from IDF",
        "url": "https://realpython.com/sorting-algorithms-python/"
      }
    ],
    "comments": "generated by rellink to module script",
    "assessment": [
      {
        "description": "Describe and evaluate the implications of big O notation",
        "eval": "https://39iosdev.gitlab.io/ccd-iqt/idf/python/Algorithms/Big_0_Analysis_Perf_Labs.html"
      }
    ]
  }
}
